{
  "defaultSeverity": "error",
  "extends": [
    "tslint:recommended"
  ],
  "rules": {
    "promise-function-async": true,
    "typedef": true,
    "typedef-whitespace": true,
    "unified-signatures": true,
    "prefer-for-of": true,
    "only-arrow-functions": true,
    "no-var-requires": true,
    "no-parameter-reassignment": true,
    "no-namespace": true,
    "no-magic-numbers": true,
    "no-internal-module": true,
    "no-inferrable-types": true,
    "no-empty-interface": true,
    "member-ordering": true,
    "member-access": true,
    "adjacent-overload-signatures": true,
    "await-promise": true,
    "ban-comma-operator": true,
    "curly": true,
    "forin": true,
    "no-arg": true,
    "no-bitwise": true,
    "no-console": false,
    "no-construct": true,
    "no-debugger": true,
    "no-duplicate-super": true,
    "no-duplicate-imports": true,
    "no-duplicate-switch-case": true,
    "no-duplicate-variable": true,
    "no-dynamic-delete": true,
    "no-empty": true,
    "no-eval": true,
    "no-floating-promises": true,
    "no-for-in-array": true,
    "no-inferred-empty-object-type": true,
    "no-invalid-template-strings": true,
    "no-invalid-this": true,
    "no-misused-new": true,
    "no-null-keyword": true,
    "no-return-await": true,
    "no-sparse-arrays": true,
    "no-string-literal": false,
    "no-string-throw": true,
    "no-switch-case-fall-through": true,
    "no-this-assignment": true,
    "no-unbound-method": false,
    "no-unsafe-any": false,
    "no-unsafe-finally": true,
    "no-unused-expression": true,
    "no-unused-variable": true,
    "no-var-keyword": true,
    "prefer-conditional-expression": true,
    "prefer-object-spread": true,
    "radix": true,
    "strict-boolean-expressions": false,
    "strict-type-predicates": true,
    "switch-default": true,
    "triple-equals": true,
    "typeof-compare": true,
    "use-default-type-parameter": true,
    "use-isnan": true,
    "cyclomatic-complexity": true,
    "deprecation": true,
    "eofline": true,
    "indent": [
      true,
      "spaces",
      2
    ],
    "max-classes-per-file": [
      true,
      1
    ],
    "max-line-length": [
      true,
      150
    ],
    "no-default-export": false,
    "no-require-imports": true,
    "object-literal-sort-keys": false,
    "prefer-const": true,
    "trailing-comma": false,
    "align": false,
    "array-type": [
      true,
      "array"
    ],
    "arrow-parens": true,
    "arrow-return-shorthand": true,
    "binary-expression-operand-order": true,
    "class-name": true,
    "interface-name": true,
    "import-spacing": true,
    "match-default-export-name": false,
    "newline-before-return": true,
    "no-angle-bracket-type-assertion": true,
    "no-boolean-literal-compare": true,
    "no-consecutive-blank-lines": true,
    "no-irregular-whitespace": true,
    "no-redundant-jsdoc": true,
    "no-reference-import": true,
    "no-trailing-whitespace": false,
    "no-unnecessary-callback-wrapper": true,
    "no-unnecessary-initializer": true,
    "no-unnecessary-qualifier": true,
    "number-literal-format": true,
    "object-literal-key-quotes": [
      true,
      "as-needed"
    ],
    "ordered-imports": true,
    "one-variable-per-declaration": true,
    "prefer-method-signature": true,
    "prefer-switch": false,
    "prefer-template": true,
    "prefer-while": false,
    "quotemark": [
      true,
      "single"
    ],
    "return-undefined": true,
    "semicolon": false,
    "variable-name": [
      true,
      "ban-keywords",
      "check-format",
      "allow-leading-underscore",
      "allow-pascal-case"
    ],
    "whitespace": true,
    "prefer-readonly": true
  }
}